Date,Decimal Date,Average,Interpolated,Trend,Number of Days
1958-03-01,1958.208,315.71,315.71,314.62,-1
1958-04-01,1958.292,317.45,317.45,315.29,-1
1958-05-01,1958.375,317.50,317.50,314.71,-1
1958-06-01,1958.458,-99.99,317.10,314.85,-1
1958-07-01,1958.542,315.86,315.86,314.98,-1
1958-08-01,1958.625,314.93,314.93,315.94,-1
1958-09-01,1958.708,313.20,313.20,315.91,-1
1958-10-01,1958.792,-99.99,312.66,315.61,-1
1958-11-01,1958.875,313.33,313.33,315.31,-1
1958-12-01,1958.958,314.67,314.67,315.61,-1
1959-01-01,1959.042,315.62,315.62,315.70,-1
1959-02-01,1959.125,316.38,316.38,315.88,-1
1959-03-01,1959.208,316.71,316.71,315.62,-1
1959-04-01,1959.292,317.72,317.72,315.56,-1
1959-05-01,1959.375,318.29,318.29,315.50,-1
1959-06-01,1959.458,318.15,318.15,315.92,-1
1959-07-01,1959.542,316.54,316.54,315.66,-1
1959-08-01,1959.625,314.80,314.80,315.81,-1
1959-09-01,1959.708,313.84,313.84,316.55,-1
1959-10-01,1959.792,313.26,313.26,316.19,-1
1959-11-01,1959.875,314.80,314.80,316.78,-1
1959-12-01,1959.958,315.58,315.58,316.52,-1
1960-01-01,1960.042,316.43,316.43,316.51,-1
1960-02-01,1960.125,316.97,316.97,316.47,-1
1960-03-01,1960.208,317.58,317.58,316.49,-1
1960-04-01,1960.292,319.02,319.02,316.86,-1
1960-05-01,1960.375,320.03,320.03,317.24,-1
1960-06-01,1960.458,319.59,319.59,317.36,-1
1960-07-01,1960.542,318.18,318.18,317.30,-1
1960-08-01,1960.625,315.91,315.91,316.92,-1
1960-09-01,1960.708,314.16,314.16,316.87,-1
1960-10-01,1960.792,313.83,313.83,316.76,-1
1960-11-01,1960.875,315.00,315.00,316.98,-1
1960-12-01,1960.958,316.19,316.19,317.13,-1
1961-01-01,1961.042,316.93,316.93,317.03,-1
1961-02-01,1961.125,317.70,317.70,317.28,-1
1961-03-01,1961.208,318.54,318.54,317.47,-1
1961-04-01,1961.292,319.48,319.48,317.27,-1
1961-05-01,1961.375,320.58,320.58,317.70,-1
1961-06-01,1961.458,319.77,319.77,317.48,-1
1961-07-01,1961.542,318.57,318.57,317.70,-1
1961-08-01,1961.625,316.79,316.79,317.80,-1
1961-09-01,1961.708,314.80,314.80,317.49,-1
1961-10-01,1961.792,315.38,315.38,318.35,-1
1961-11-01,1961.875,316.10,316.10,318.13,-1
1961-12-01,1961.958,317.01,317.01,317.94,-1
1962-01-01,1962.042,317.94,317.94,318.06,-1
1962-02-01,1962.125,318.56,318.56,318.11,-1
1962-03-01,1962.208,319.68,319.68,318.57,-1
1962-04-01,1962.292,320.63,320.63,318.45,-1
1962-05-01,1962.375,321.01,321.01,318.20,-1
1962-06-01,1962.458,320.55,320.55,318.27,-1
1962-07-01,1962.542,319.58,319.58,318.67,-1
1962-08-01,1962.625,317.40,317.40,318.48,-1
1962-09-01,1962.708,316.26,316.26,319.03,-1
1962-10-01,1962.792,315.42,315.42,318.33,-1
1962-11-01,1962.875,316.69,316.69,318.62,-1
1962-12-01,1962.958,317.69,317.69,318.61,-1
1963-01-01,1963.042,318.74,318.74,318.91,-1
1963-02-01,1963.125,319.08,319.08,318.68,-1
1963-03-01,1963.208,319.86,319.86,318.69,-1
1963-04-01,1963.292,321.39,321.39,319.09,-1
1963-05-01,1963.375,322.25,322.25,319.39,-1
1963-06-01,1963.458,321.47,321.47,319.16,-1
1963-07-01,1963.542,319.74,319.74,318.77,-1
1963-08-01,1963.625,317.77,317.77,318.83,-1
1963-09-01,1963.708,316.21,316.21,319.06,-1
1963-10-01,1963.792,315.99,315.99,319.00,-1
1963-11-01,1963.875,317.12,317.12,319.10,-1
1963-12-01,1963.958,318.31,318.31,319.25,-1
1964-01-01,1964.042,319.57,319.57,319.67,-1
1964-02-01,1964.125,-99.99,320.07,319.61,-1
1964-03-01,1964.208,-99.99,320.73,319.55,-1
1964-04-01,1964.292,-99.99,321.77,319.48,-1
1964-05-01,1964.375,322.25,322.25,319.42,-1
1964-06-01,1964.458,321.89,321.89,319.69,-1
1964-07-01,1964.542,320.44,320.44,319.58,-1
1964-08-01,1964.625,318.70,318.70,319.81,-1
1964-09-01,1964.708,316.70,316.70,319.56,-1
1964-10-01,1964.792,316.79,316.79,319.78,-1
1964-11-01,1964.875,317.79,317.79,319.72,-1
1964-12-01,1964.958,318.71,318.71,319.59,-1
1965-01-01,1965.042,319.44,319.44,319.48,-1
1965-02-01,1965.125,320.44,320.44,319.97,-1
1965-03-01,1965.208,320.89,320.89,319.65,-1
1965-04-01,1965.292,322.13,322.13,319.80,-1
1965-05-01,1965.375,322.16,322.16,319.36,-1
1965-06-01,1965.458,321.87,321.87,319.65,-1
1965-07-01,1965.542,321.39,321.39,320.51,-1
1965-08-01,1965.625,318.81,318.81,319.93,-1
1965-09-01,1965.708,317.81,317.81,320.68,-1
1965-10-01,1965.792,317.30,317.30,320.36,-1
1965-11-01,1965.875,318.87,318.87,320.87,-1
1965-12-01,1965.958,319.42,319.42,320.26,-1
1966-01-01,1966.042,320.62,320.62,320.63,-1
1966-02-01,1966.125,321.59,321.59,321.10,-1
1966-03-01,1966.208,322.39,322.39,321.16,-1
1966-04-01,1966.292,323.87,323.87,321.51,-1
1966-05-01,1966.375,324.01,324.01,321.18,-1
